Klasa,Opis,Data publikacji,Termin oddania,Dni do oddania,Trudność/Waga
3a,"Lekcja 03 - Obsługa formularzy w PHP - tablice $_GET, $_POST. Zmienne sesyjne i tablica $_SESSION",2018-10-12,2018-10-19,-82,6
3b,"Lekcja 03 - Obsługa formularzy w PHP - tablice $_GET, $_POST. Zmienne sesyjne i tablica $_SESSION",2018-10-11,2018-10-18,-83,6
3c,"Lekcja 03 - Obsługa formularzy w PHP - tablice $_GET, $_POST. Zmienne sesyjne i tablica $_SESSION",2018-10-10,2018-10-17,-84,6
3a,Lekcja 04 - Warunkowe łączenie kodu w PHP na podstawie parametrów z tablicy GET,2018-10-22,2018-10-29,-72,3
3b,Lekcja 04 - Warunkowe łączenie kodu w PHP na podstawie parametrów z tablicy GET,,,,3
3c,Lekcja 04 - Warunkowe łączenie kodu w PHP na podstawie parametrów z tablicy GET,,,,3
3a,Lekcja 05 - Przetwarzanie nagłówków http - nagłówek Accept,,,,3
3b,Lekcja 05 - Przetwarzanie nagłówków http - nagłówek Accept,2018-11-08,2018-11-08,-62,3
3c,Lekcja 05 - Przetwarzanie nagłówków http - nagłówek Accept,2018-11-07,2018-11-14,-56,3
3a,"Lekcja 06 - Zaawansowane przetwarzanie nagłówków http, detekcja języka - nagłówek Accept- Language",2018-11-16,2018-11-19,-51,9
3b,"Lekcja 06 - Zaawansowane przetwarzanie nagłówków http, detekcja języka - nagłówek Accept- Language",2018-11-15,2018-11-30,-40,9
3c,"Lekcja 06 - Zaawansowane przetwarzanie nagłówków http, detekcja języka - nagłówek Accept- Language",2018-11-14,2018-11-28,-42,9
3a,Lekcja 07 - Przechowywanie stanu aplikacji - sesja i ciasteczka w PHP,2018-11-30,2018-11-30,-40,6
3b,Lekcja 07 - Przechowywanie stanu aplikacji - sesja i ciasteczka w PHP,2018-11-29,2018-11-30,-40,
3c,Lekcja 07 - Przechowywanie stanu aplikacji - sesja i ciasteczka w PHP,2018-11-28,2018-11-28,-42,
3a,PAI_LAB01 - Etap 1,,2018-12-14,-26,1
3b,PAI_LAB01 - Etap 1,,,,
3c,PAI_LAB01 - Etap 1,2018-11-28,2018-12-12,-28,
3a,PAI_LAB02 - Etap 2,2018-12-07,2018-12-14,-26,1
3b,PAI_LAB02 - Etap 2,2018-12-06,2018-12-13,-27,
3c,PAI_LAB02 - Etap 2,2018-12-05,2018-12-12,-28,
3a,Lekcja 09c - Operacje na plikach w PHP - odczyt z pliku CSV,2019-01-07,2019-01-14,5,3
3b,Lekcja 09c - Operacje na plikach w PHP - odczyt z pliku CSV,2019-01-09,2019-01-16,7,
3c,Lekcja 09c - Operacje na plikach w PHP - odczyt z pliku CSV,2019-01-09,2019-01-16,7,
3a,PAI_LAB03 - Etap 3,2019-01-11,2019-01-25,16,3
3b,PAI_LAB03 - Etap 3,2019-01-10,2019-01-25,16,
3c,PAI_LAB03 - Etap 3,2019-01-09,2019-01-25,16,
3b,gfhjfg,2019-02-27,2019-02-27,0,1
3b,", """" -xgdfh, """,2019-02-27,2019-02-27,0,1
